.............
----------------------------------------------------------------------
Ran 13 tests in 0.187s

OK
Name             Stmts   Miss Branch BrPart  Cover   Missing
------------------------------------------------------------
Collatz.py          45      0     16      0   100%
TestCollatz.py      60      0      0      0   100%
------------------------------------------------------------
TOTAL              105      0     16      0   100%
