1 10 20
100 200 125
201 210 89
900 1000 174
9 1000 179
1 20 21
1 20000 279
200000 999999 525
20 45000 324
7777 8888 252
858 404040 443
22 2222 182
45 9999 262
99998 4445 351
8830 4999 262
278 888 179
999999 800000 525
75 7000 262
690 960 179
149 9410 262
1109 899 174
809287 960380 525
424831 22632 449
608723 498796 470
508638 701240 509
288114 36373 443
638214 252678 509
603518 896826 525
532751 924306 525
110632 500650 449
54448 34367 340
327155 48513 443
80915 866700 525
816531 660148 504
465140 760564 509
522819 644589 509
358207 934598 525
958856 839719 507
92858 80611 333
108977 713197 509
162105 587725 470
921408 633007 525
263882 541640 470
233218 190904 443
540932 536275 408
119594 484337 449
562455 563554 359
69173 168141 383
510137 389689 449
996673 14037 525
308327 334540 384
660057 736351 504
117967 359791 443
467329 536544 470
269870 118772 443
273063 409426 441
214896 326982 443
848703 529306 525
464602 861611 525
825762 926790 525
304784 577805 470
135344 800089 509
829803 875447 525
592689 380657 470
313096 908569 525
829351 670033 504
444310 603549 470
696092 13101 509
920806 446594 525
73736 20092 340
914208 806886 525
11986 555162 470
168785 583554 470
247966 546338 470
148403 586511 470
185039 660150 509
353147 402688 436
919030 839848 476
255018 534692 470
855459 667039 525
963288 84563 525
325934 710921 509
510704 943302 525
697413 186325 509
907375 218300 525
294237 118689 443
417222 685603 509
22646 718348 509
354414 866650 525
896255 833686 525
856269 716584 525
467413 464996 369
893035 446028 525
138493 104256 354
756722 919449 525
5557 491859 449
498567 156458 449 
603353 453112 470 
757518 582743 509
922349 813061 525 